{
  "users": [
    {
      "id": 1,
      "username": "json-server",
      "address": "typicode"
    }
  ],
  "pets": [
    {
      "id": 1,
      "petName": "cat",
      "petOwner": "prince"
    },
    {
      "id": 1,
      "petName": "dog",
      "petOwner": "devi"
    }
  ]
}